<?xml version="1.0" encoding="utf-8"?>
<!-- Svg Vector Icons : http://www.onlinewebfonts.com/icon -->
<!DOCTYPE svg PUBLIC "-//W3C//DTD SVG 1.1//EN" "http://www.w3.org/Graphics/SVG/1.1/DTD/svg11.dtd">
<svg version="1.1" xmlns="http://www.w3.org/2000/svg" xmlns:xlink="http://www.w3.org/1999/xlink" x="0px" y="0px" viewBox="0 0 1000 1000" enable-background="new 0 0 1000 1000" xml:space="preserve">
<metadata> Svg Vector Icons : http://www.onlinewebfonts.com/icon </metadata>
<g><g transform="translate(0.000000,512.000000) scale(0.100000,-0.100000)"><path fill="#495D9E" d="M9215.8,5023.9c-785.2-144.7-1601.3-621.2-2483-1448.9c-424.4-399.4-1147.9-1167.2-1680.4-1786.5l-212.2-246.9h-102.3c-160.1,0-2012.2-75.2-2118.3-84.9c-50.2-5.8-129.3-30.9-173.6-57.9c-100.3-59.8-956.9-918.3-956.9-960.8c0-15.4,11.6-40.5,27-54c27-21.2,1927.3-482.3,1989.1-482.3c15.4,0,28.9-5.8,28.9-11.6c0-5.8-55.9-88.8-125.4-185.2c-200.6-281.7-219.9-237.3,343.4-800.6c563.3-565.3,519-546,802.6-343.4c98.4,69.5,181.4,125.4,187.1,125.4c3.9,0,7.7-13.5,7.7-28.9c0-61.7,463-1962.1,484.2-1989.1c11.6-15.4,36.7-27,52.1-27c40.5,0,901,856.6,960.8,956.9c25.1,42.4,50.2,117.7,56,164c11.6,88.7,86.8,1954.3,86.8,2129.9V-7.6L6646,212.3c887.5,764,1751.8,1607.1,2178.1,2126c698.4,854.7,1101.6,1749.8,1074.6,2384.6c-9.6,173.6-42.4,239.2-154.3,295.2C9665.3,5060.6,9420.3,5062.5,9215.8,5023.9z M7936.7,3362.8c96.5-32.8,210.3-129.3,258.5-221.9c119.6-231.5-17.3-549.8-268.2-625.1c-117.7-34.7-144.7-34.7-260.4-5.8c-133.1,32.8-279.7,183.3-312.5,322.2c-36.7,154.3-1.9,281.7,108,405.1C7593.3,3382.1,7753.4,3426.5,7936.7,3362.8z M7016.4,2392.4c219.9-100.3,324.1-372.4,223.8-590.4c-73.3-162.1-225.7-260.4-407.1-260.4c-391.6,0-592.3,465-322.2,750.5C6638.3,2425.2,6852.4,2467.6,7016.4,2392.4z M5999.7,1460.6c171.7-42.4,331.8-252.7,331.8-436c0-19.3-13.5-79.1-28.9-133.1c-75.3-250.8-393.6-387.8-625.1-268.2c-140.8,73.3-252.7,254.7-252.7,407.1c0,223.8,212.2,441.8,439.9,451.4C5889.7,1483.7,5949.5,1474.1,5999.7,1460.6z"/><path fill="#52431D" d="M2685.2-951c-262.4-138.9-289.4-160.1-289.4-225.7c0-73.3,1201.9-1275.3,1275.2-1275.3c67.5,0,88.7,28.9,227.6,291.3c183.3,345.3,210.3,281.7-360.8,850.8C2968.8-738.8,3032.5-765.8,2685.2-951z"/><path fill="#9E7A19" d="M1788.1-1634c-476.5-75.3-941.5-376.2-1252.1-810.3c-38.6-54-69.5-104.2-69.5-111.9c0-5.8,42.4,15.4,92.6,46.3c200.6,123.5,557.6,212.2,713.8,177.5l63.7-13.5l-73.3-71.4c-40.5-38.6-185.2-140.8-324.1-225.7c-387.8-243.1-474.6-351.1-569.1-725.4c-63.7-258.5-65.6-260.5-9.6-164c131.2,227.7,410.9,410.9,536.3,353.1l46.3-21.2L908.4-3351c-19.3-84.9-42.4-216.1-54-293.3c-36.7-248.9-162.1-430.2-416.7-601.9c-75.2-50.1-167.8-127.3-206.4-169.8c-73.3-81-131.2-231.5-131.2-337.6v-57.9l69.5,71.4C269.8-4637.8,399-4580,694.2-4506.6c492,123.5,966.6,414.8,1090,669.5l30.9,63.7l19.3-54c61.7-160.1-38.6-399.4-277.8-665.6c-50.2-56-86.8-106.1-81-111.9c15.4-15.4,274,98.4,407.1,179.4c247,150.5,382,329.9,582.6,775.6c77.2,171.7,83,177.5,106.1,135c13.5-25.1,27-111.9,32.8-191c9.6-164-27-335.7-104.2-488.1c-27-52.1-44.4-98.4-40.5-102.2c13.5-13.5,306.8,331.8,414.8,490c204.5,293.3,331.8,638.6,331.8,891.3c0,138.9-42.4,329.9-100.3,463l-48.2,106.1l-11.6-183.3c-19.3-289.4-140.8-644.4-254.7-752.4l-42.4-40.5l-9.6,152.4c-11.6,152.4-67.5,370.4-96.5,370.4c-34.7,0-115.8-160.1-179.4-356.9c-38.6-115.8-90.7-246.9-115.8-291.3c-42.4-73.3-237.3-268.2-252.7-252.8c-3.9,1.9,11.6,61.7,32.8,129.3c63.7,200.7,19.3,328-108,328c-79.1,0-362.7-183.3-538.3-345.4c-67.5-61.7-140.8-123.5-165.9-137c-40.5-21.2-42.5-19.3-30.9,11.6c7.7,19.3,23.2,106.1,32.8,191c32.8,264.3,111.9,441.8,295.2,650.2c48.2,54,81,108,75.2,117.7c-19.3,30.9-297.1,1.9-397.4-42.5l-92.6-40.5l38.6,54c48.2,69.5,287.5,295.2,393.6,372.4c113.8,82.9,248.9,150.5,422.5,208.3c83,27,150.5,59.8,154.3,69.5c1.9,11.6-40.5,40.5-92.6,67.5c-83,42.5-119.6,48.2-301,48.2h-206.4l59.8,61.7c110,113.8,302.9,194.9,584.6,246.9l77.2,15.4l-86.8,27C2148.9-1637.8,1884.6-1620.5,1788.1-1634z"/></g></g>
</svg>
